a12.JPEG: 25.598086356564522
a9.JPEG: 23.768460254070867
a28.JPEG: 22.37959836036055
a5.JPEG: 21.09537728978324
a24.JPEG: 27.84533366730829
a32.JPEG: 22.947588202121164
a33.JPEG: 21.664145438928692
a25.JPEG: 27.66648868189523
a4.JPEG: 21.063856255550412
a29.JPEG: 24.532905962852972
a8.JPEG: 25.374480381933857
a13.JPEG: 26.68066514330903
a3.JPEG: 20.464376635570215
a18.JPEG: 29.724376537091388
a22.JPEG: 24.065601131756893
a34.JPEG: 20.253852535591594
a14.JPEG: 28.442807830478934
a38.JPEG: 20.66653123588094
a39.JPEG: 20.17236437265101
a15.JPEG: 28.288267543975625
a35.JPEG: 20.0623118213758
a23.JPEG: 29.10059924133881
a19.JPEG: 26.38871624827808
a2.JPEG: 22.158091139678202
a36.JPEG: 20.391216570754125
a20.JPEG: 24.412751416685914
a1.JPEG: 21.117463064106552
a16.JPEG: 25.61300097537398
a17.JPEG: 27.943311921162053
a21.JPEG: 29.263629574243453
a37.JPEG: 22.226445893559976
a10.JPEG: 23.316381051367593
a30.JPEG: 21.718955138887885
a26.JPEG: 26.313024670074782
a7.JPEG: 21.757320235599586
a6.JPEG: 22.045846522598
a27.JPEG: 22.89963050866243
a31.JPEG: 23.00985837942371
a11.JPEG: 24.04093289422469
Used filters: median_filter
Filters config: {'gaussian_filter': [5], 'sc_filter': [10, 3], 'median_filter': [3, 5], 'histogram_equalization': [0.75, 8]}Processing time: 0.24532198905944824 sec;
Average time per image: 0.006290307411780724 sec