a12.JPEG: 24.786590548637793
a9.JPEG: 23.83995050270145
a28.JPEG: 23.487126274308523
a5.JPEG: 20.237665080365485
a24.JPEG: 23.342575842469103
a32.JPEG: 21.301840961743558
a33.JPEG: 20.309960474170225
a25.JPEG: 20.46883284889736
a4.JPEG: 20.55557578427012
a29.JPEG: 21.369888891972288
a8.JPEG: 21.932649508835613
a13.JPEG: 26.253227081337876
a3.JPEG: 19.170778149793076
a18.JPEG: 26.362968130665905
a22.JPEG: 24.30148307060877
a34.JPEG: 18.87206429297787
a14.JPEG: 31.23645709914602
a38.JPEG: 19.669151864266162
a15.JPEG: 31.079499707998632
a35.JPEG: 19.943717657105097
a23.JPEG: 31.397057915270338
a19.JPEG: 27.58477736953847
a2.JPEG: 19.0414035053082
a36.JPEG: 19.46128627122713
a20.JPEG: 28.035040423550164
a1.JPEG: 19.801250926415722
a16.JPEG: 27.044779455586202
a17.JPEG: 25.08432253348883
a21.JPEG: 25.450254854963298
a37.JPEG: 19.52714393488756
a10.JPEG: 26.981574252016923
a30.JPEG: 25.887803836259486
a26.JPEG: 27.91307621907582
a7.JPEG: 19.982614614898793
a6.JPEG: 20.63572831482723
a27.JPEG: 23.573980998396603
a31.JPEG: 20.261984152800288
a11.JPEG: 20.658413312544624
Processing time: 38.57198715209961 sec;
Average time per image: 1.0150522934763055 sec