a12.JPEG: 30.81647049330372
a9.JPEG: 24.12881852669408
a28.JPEG: 24.477647466688612
a5.JPEG: 21.259492221087775
a24.JPEG: 23.506001569829294
a32.JPEG: 20.974226882037833
a33.JPEG: 19.644869664210994
a25.JPEG: 23.257460069979178
a4.JPEG: 21.42506234887694
a29.JPEG: 20.843582889834792
a8.JPEG: 23.326988151267173
a13.JPEG: 23.790190749439418
a3.JPEG: 22.11820364073813
a18.JPEG: 24.093201067913355
a22.JPEG: 26.646798378069903
a34.JPEG: 18.95625035122904
a14.JPEG: 25.761520241011894
a15.JPEG: 25.540712319018198
a35.JPEG: 19.149938517556876
a23.JPEG: 26.444042996686438
a19.JPEG: 24.416916404493932
a2.JPEG: 20.24919991822336
a20.JPEG: 23.96896226161865
a1.JPEG: 20.59858438552578
a16.JPEG: 26.247874460958315
a17.JPEG: 25.682295450950924
a21.JPEG: 29.463438064108214
a10.JPEG: 24.12881852669408
a30.JPEG: 21.696290093334763
a26.JPEG: 23.594953418721975
a7.JPEG: 23.547920524615414
a6.JPEG: 24.254708403523722
a27.JPEG: 20.434667230082695
a31.JPEG: 19.183346136890876
a11.JPEG: 30.261431962301586
Used filters: sc_filter
Filters config: {'gaussian_filter': [5], 'sc_filter': [10, 3], 'median_filter': [3, 5], 'histogram_equalization': [0.75, 8]}Processing time: 7.675385236740112 sec;
Average time per image: 0.2192967210497175 sec