a12.JPEG: 26.961465599763564
a9.JPEG: 28.98847925072413
a28.JPEG: 27.054835720860197
a5.JPEG: 21.88808643561393
a24.JPEG: 29.48738544283836
a32.JPEG: 23.540559336690926
a33.JPEG: 22.029597539852126
a25.JPEG: 27.266384740673885
a4.JPEG: 21.00346514257137
a29.JPEG: 24.61961897076388
a8.JPEG: 24.45359287312117
a13.JPEG: 26.2231877933093
a3.JPEG: 24.222514431629815
a18.JPEG: 27.80797853297923
a22.JPEG: 29.419239014427156
a34.JPEG: 22.839515449342347
a14.JPEG: 28.39456230396778
a38.JPEG: 21.637970836393606
a39.JPEG: 21.631855795976346
a15.JPEG: 28.493952888004678
a35.JPEG: 26.609535482364144
a23.JPEG: 29.26689314952362
a19.JPEG: 27.87597277130573
a2.JPEG: 21.882417084885656
a36.JPEG: 21.73534720904293
a20.JPEG: 28.225314911110978
a1.JPEG: 21.94958904301336
a16.JPEG: 30.152972246250222
a41.JPEG: 21.141412739466876
a40.JPEG: 21.04712409146897
a17.JPEG: 26.485609248571755
a21.JPEG: 28.135319300158287
a37.JPEG: 22.04993060302077
a10.JPEG: 24.248584654548093
a30.JPEG: 24.46525252399368
a26.JPEG: 24.3991680902748
a7.JPEG: 24.284730645962426
a6.JPEG: 25.678022205261485
a27.JPEG: 24.196374576299995
a31.JPEG: 24.84125908465815
a11.JPEG: 24.75338736412136
Used filters: median_filter
Filters config: {'gaussian_filter': [5], 'sc_filter': [10, 3], 'median_filter': [3, 5], 'histogram_equalization': [0.75, 8]}Processing time: 0.24581360816955566 sec;
Average time per image: 0.00599545385779404 sec