a12.JPEG: 33.14077871675113
a9.JPEG: 26.114701692468287
a28.JPEG: 23.72100866570471
a5.JPEG: 24.915941483965725
a24.JPEG: 25.419584073134512
a32.JPEG: 25.24336453731939
a33.JPEG: 24.231519385501805
a25.JPEG: 25.820083153043605
a4.JPEG: 21.171340571254
a29.JPEG: 22.33074596058848
a8.JPEG: 22.520915451010453
a13.JPEG: 33.60222267998521
a3.JPEG: 19.32897365840904
a18.JPEG: 26.220134255725736
a22.JPEG: 23.66377826273323
a34.JPEG: 20.6421842591176
a14.JPEG: 26.985845713884128
a15.JPEG: 26.248200201330963
a35.JPEG: 19.144357392809283
a23.JPEG: 30.62511404270491
a19.JPEG: 25.00951130416191
a2.JPEG: 21.936687712146934
a36.JPEG: 21.564024308192273
a20.JPEG: 25.20339268920909
a1.JPEG: 22.105282852294895
a16.JPEG: 26.74471561156576
a17.JPEG: 27.053335590065537
a21.JPEG: 25.533184009881246
a10.JPEG: 26.331612006253625
a30.JPEG: 21.713947313465276
a26.JPEG: 28.319823082108783
a7.JPEG: 28.71413303299756
a6.JPEG: 20.399850722834234
a27.JPEG: 23.697277672118602
a31.JPEG: 21.567625811971254
a11.JPEG: 33.91211670048162
Used filters: gaussian_filter, sc_filter
Filters config: {'gaussian_filter': [3], 'sc_filter': [10, 3], 'median_filter': [3, 5], 'histogram_equalization': [0.75, 8]}Processing time: 31.205704927444458 sec;
Average time per image: 0.8668251368734572 sec