a12.JPEG: 30.943745495883
a9.JPEG: 24.468276192308206
a28.JPEG: 24.851713222901402
a5.JPEG: 21.606694899227573
a24.JPEG: 23.88290771832927
a32.JPEG: 21.319662427922474
a33.JPEG: 19.973502276638442
a25.JPEG: 23.607985779904766
a4.JPEG: 21.76134683543783
a29.JPEG: 21.250807704341128
a8.JPEG: 23.677616872121746
a13.JPEG: 24.103837572478838
a3.JPEG: 22.51194998149263
a18.JPEG: 24.442451803076715
a22.JPEG: 26.917065283213198
a34.JPEG: 19.342856455826688
a14.JPEG: 26.020770283130833
a15.JPEG: 25.77374565423332
a35.JPEG: 19.480194920455897
a23.JPEG: 26.71123194841428
a19.JPEG: 24.73061701911576
a2.JPEG: 20.579617253121626
a20.JPEG: 24.289205700641293
a1.JPEG: 21.00789502144492
a16.JPEG: 26.47681611738648
a17.JPEG: 25.861725526277706
a21.JPEG: 29.60450664353862
a10.JPEG: 24.468276192308206
a30.JPEG: 22.062261230313275
a26.JPEG: 24.010881430816692
a7.JPEG: 23.888001372933342
a6.JPEG: 24.600164844597412
a27.JPEG: 20.81776136318493
a31.JPEG: 19.528858407096305
a11.JPEG: 30.439463988230713
Used filters: gaussian_filter
Filters config: {'gaussian_filter': [5], 'sc_filter': [10, 3], 'median_filter': [3, 5], 'histogram_equalization': [0.75, 8]}Processing time: 0.21735596656799316 sec;
Average time per image: 0.006210170473371233 sec