a12.JPEG: 22.76457259343916
a9.JPEG: 21.101440344802693
a28.JPEG: 26.08556705728209
a5.JPEG: 23.64380354608935
a24.JPEG: 27.956119125881088
a32.JPEG: 22.777134957675038
a33.JPEG: 19.929585730803332
a25.JPEG: 24.489705201045396
a4.JPEG: 22.09906626119661
a29.JPEG: 23.109763651477536
a8.JPEG: 22.50226351069447
a13.JPEG: 25.268898825709073
a3.JPEG: 20.46947551552526
a18.JPEG: 26.846929774746805
a22.JPEG: 31.46346397056064
a34.JPEG: 19.826941205468827
a14.JPEG: 21.96975405826368
a38.JPEG: 19.799938210026383
a15.JPEG: 30.57473853608404
a35.JPEG: 19.75190878009235
a23.JPEG: 29.526745599139943
a19.JPEG: 27.1796013157291
a2.JPEG: 19.67101890751254
a36.JPEG: 19.70170132567535
a20.JPEG: 23.537511274368647
a1.JPEG: 21.74309455980059
a16.JPEG: 24.077776803675704
a17.JPEG: 24.858150132142256
a21.JPEG: 32.36102157179232
a37.JPEG: 23.01931372787562
a10.JPEG: 24.176416722348485
a30.JPEG: 21.06318397392124
a26.JPEG: 25.61206963419707
a7.JPEG: 22.12392817869908
a6.JPEG: 21.44752592445005
a27.JPEG: 22.385839580434215
a31.JPEG: 24.092180174041804
a11.JPEG: 22.70256551086011
Processing time: 38.83441996574402 sec;
Average time per image: 1.0219584201511585 sec