a12.JPEG: 25.858446305355663
a9.JPEG: 20.248513354486583
a28.JPEG: 28.35156991119589
a5.JPEG: 19.92789312557083
a24.JPEG: 27.3924386182931
a32.JPEG: 21.147196725314746
a33.JPEG: 22.083763292499036
a25.JPEG: 28.295956080385984
a4.JPEG: 19.89648052514675
a29.JPEG: 22.266840925709257
a8.JPEG: 22.116748568367065
a13.JPEG: 27.34850357872491
a3.JPEG: 20.555390903010114
a18.JPEG: 25.653390541168445
a22.JPEG: 24.82639519663726
a34.JPEG: 24.01981849099361
a14.JPEG: 27.80848633073942
a38.JPEG: 19.570626812883063
a15.JPEG: 27.66041557918846
a35.JPEG: 22.386147319570753
a23.JPEG: 26.879020435512203
a19.JPEG: 25.810723853973418
a2.JPEG: 19.693116494817026
a36.JPEG: 23.911561981475565
a20.JPEG: 25.725549272449207
a1.JPEG: 19.395340610508452
a16.JPEG: 27.95047080107027
a17.JPEG: 27.87738328877839
a21.JPEG: 25.982549905102985
a37.JPEG: 20.99088229254514
a10.JPEG: 25.26548532285887
a30.JPEG: 22.528896900140932
a26.JPEG: 28.59605259689286
a7.JPEG: 20.604300446966
a6.JPEG: 20.273764878224018
a27.JPEG: 25.82444742595181
a31.JPEG: 21.954279040367844
a11.JPEG: 23.483444009215248
Processing time: 12.117516040802002 sec;
Average time per image: 0.3188820010737369 sec