a12.JPEG: 26.725257160642677
a9.JPEG: 24.173353697118124
a28.JPEG: 23.36797613954699
a5.JPEG: 21.566923052952358
a24.JPEG: 29.26243464740353
a32.JPEG: 22.335807087676987
a33.JPEG: 23.29605789680455
a25.JPEG: 29.351853029077187
a4.JPEG: 20.81973669715922
a29.JPEG: 25.974930791739546
a8.JPEG: 22.80256921069062
a13.JPEG: 27.74389898605479
a3.JPEG: 21.391215636970564
a18.JPEG: 26.188652451951594
a22.JPEG: 28.85323166110542
a34.JPEG: 20.25526714889496
a14.JPEG: 27.265403507828996
a38.JPEG: 23.39450151473054
a39.JPEG: 22.29771027474721
a15.JPEG: 28.487591567372938
a35.JPEG: 22.476355154731557
a23.JPEG: 28.194528379938074
a19.JPEG: 28.81747678609114
a2.JPEG: 21.63455388762694
a36.JPEG: 20.984860631336705
a20.JPEG: 27.314074007874165
a1.JPEG: 21.98117980461412
a16.JPEG: 27.805880633173224
a40.JPEG: 22.021107723136947
a17.JPEG: 28.597836053458963
a21.JPEG: 26.943221321670134
a37.JPEG: 25.986883297524486
a10.JPEG: 23.373450124060057
a30.JPEG: 24.011174137549347
a26.JPEG: 27.292380984464724
a7.JPEG: 25.491480424071568
a6.JPEG: 22.988807548907147
a27.JPEG: 26.318681146225327
a31.JPEG: 26.953173908030795
a11.JPEG: 24.423985939274946
Used filters: gaussian_filter, sc_filter
Filters config: {'gaussian_filter': [3], 'sc_filter': [10, 3], 'median_filter': [3, 5], 'histogram_equalization': [0.75, 8]}Processing time: 8.622874975204468 sec;
Average time per image: 0.2155718743801117 sec