a12.JPEG: 27.34322862407915
a9.JPEG: 24.13387050366929
a28.JPEG: 27.851258727182262
a5.JPEG: 22.348379161938745
a24.JPEG: 26.97182828101692
a32.JPEG: 27.35453417003154
a33.JPEG: 25.00890450926701
a25.JPEG: 29.219106519029694
a4.JPEG: 20.91768111742273
a29.JPEG: 27.659797182086958
a8.JPEG: 24.97183399731997
a13.JPEG: 22.577376610265034
a3.JPEG: 22.058923829401888
a18.JPEG: 29.075951098898074
a22.JPEG: 30.169181015141717
a34.JPEG: 24.600511835909266
a14.JPEG: 28.606915494708893
a38.JPEG: 19.28835655037475
a39.JPEG: 19.715751206704844
a15.JPEG: 29.21842580735914
a35.JPEG: 22.006533214221133
a23.JPEG: 27.324604596351
a19.JPEG: 24.513842726833595
a2.JPEG: 20.22551627751203
a36.JPEG: 24.16221719151985
a20.JPEG: 25.39917100126297
a1.JPEG: 20.187160742219888
a16.JPEG: 29.55815635852513
a40.JPEG: 19.61834835566593
a17.JPEG: 24.30385005191477
a21.JPEG: 26.895655266028857
a37.JPEG: 20.898992118327993
a10.JPEG: 24.728042100495372
a30.JPEG: 27.370849346340403
a26.JPEG: 29.613271972217078
a7.JPEG: 23.13980062217493
a6.JPEG: 23.435681968436587
a27.JPEG: 26.163710184383042
a31.JPEG: 25.347060555609367
a11.JPEG: 24.05093125586157
Used filters: sc_filter
Filters config: {'gaussian_filter': [5], 'sc_filter': [10, 3], 'median_filter': [3, 5], 'histogram_equalization': [0.75, 8]}Processing time: 7.368738889694214 sec;
Average time per image: 0.18421847224235535 sec