a12.JPEG: 25.339769099350388
a9.JPEG: 29.00358690551975
a28.JPEG: 28.861203959781445
a5.JPEG: 23.19298091233618
a24.JPEG: 29.820629480035976
a32.JPEG: 24.237138454336584
a33.JPEG: 23.037451167991996
a25.JPEG: 24.264750256484128
a4.JPEG: 20.64596402998767
a29.JPEG: 29.217050108563484
a8.JPEG: 22.458739773119976
a13.JPEG: 25.543307906111878
a3.JPEG: 20.750625341957765
a18.JPEG: 30.231188779178492
a22.JPEG: 27.60628890231882
a34.JPEG: 24.573670650282587
a14.JPEG: 27.936549008344986
a38.JPEG: 22.001567839501398
a39.JPEG: 21.389040891752067
a15.JPEG: 26.96951270762353
a35.JPEG: 22.95263943502786
a23.JPEG: 29.718998331329104
a19.JPEG: 27.166341923123735
a2.JPEG: 20.391657785447734
a36.JPEG: 22.585237918987318
a20.JPEG: 28.189070698951348
a1.JPEG: 20.758403244681688
a16.JPEG: 30.346072695891777
a41.JPEG: 24.40148079403531
a40.JPEG: 25.649483559308642
a17.JPEG: 31.42192507508698
a21.JPEG: 29.912876171497178
a37.JPEG: 26.355317459612692
a10.JPEG: 22.473883757190784
a30.JPEG: 26.603535298117663
a26.JPEG: 30.220485357618642
a7.JPEG: 23.578657497430395
a6.JPEG: 25.09218275238193
a27.JPEG: 30.178789325039705
a31.JPEG: 22.515540194557286
a11.JPEG: 24.07316689338012
Used filters: gaussian_filter
Filters config: {'gaussian_filter': [5], 'sc_filter': [10, 3], 'median_filter': [3, 5], 'histogram_equalization': [0.75, 8]}Processing time: 0.22466039657592773 sec;
Average time per image: 0.005479521867705554 sec