a12.JPEG: 22.62964207365545
a9.JPEG: 22.32940464418956
a28.JPEG: 29.659781233993606
a5.JPEG: 22.875904710749218
a24.JPEG: 29.02816688328034
a32.JPEG: 25.95407837754793
a33.JPEG: 23.733640559227712
a25.JPEG: 29.08242715607575
a4.JPEG: 21.81974253784704
a29.JPEG: 28.996854365622973
a8.JPEG: 22.539948279312007
a13.JPEG: 23.4603005443134
a3.JPEG: 21.90157066258446
a18.JPEG: 26.00036849768706
a22.JPEG: 29.271936538326464
a34.JPEG: 24.331176917533853
a14.JPEG: 25.212677257297855
a38.JPEG: 22.32781406417663
a39.JPEG: 20.48767533568631
a15.JPEG: 25.14683145265832
a35.JPEG: 24.435694469199483
a23.JPEG: 30.791463718621195
a19.JPEG: 27.774702138036346
a2.JPEG: 22.129439368447077
a36.JPEG: 24.06580652968409
a20.JPEG: 28.98080362393433
a1.JPEG: 22.62366147098613
a16.JPEG: 24.46165726384372
a41.JPEG: 20.787425920191964
a40.JPEG: 20.690066660551025
a17.JPEG: 24.705405652415124
a21.JPEG: 29.216388852596396
a37.JPEG: 21.252848699633336
a10.JPEG: 22.599434503731082
a30.JPEG: 29.212304105789492
a26.JPEG: 27.797494302945864
a7.JPEG: 23.724261531133962
a6.JPEG: 22.267027018249678
a27.JPEG: 27.33867476653559
a31.JPEG: 26.338769708178987
a11.JPEG: 23.01239001830009
Used filters: sc_filter
Filters config: {'gaussian_filter': [5], 'sc_filter': [10, 3], 'median_filter': [3, 5], 'histogram_equalization': [0.75, 8]}Processing time: 13.41667890548706 sec;
Average time per image: 0.3272360708655381 sec